…
We can now combine the gened and d75 dataframes as we have scaled down
the number of columns.

``` r
survey <- bind_rows(gened,d75)

survey
```

    ## # A tibble: 439 x 30
    ##    DBN   schoolname  rr_s  rr_t  rr_p   N_s   N_t   N_p  nr_s  nr_t  nr_p
    ##    <chr> <chr>      <dbl> <dbl> <dbl> <dbl> <dbl> <dbl> <dbl> <dbl> <dbl>
    ##  1 01M4~ Universit~    84    95    10   385    37    46   459    39   445
    ##  2 01M4~ Forsyth S~    40   100    23    66    10    37   167    10   164
    ##  3 01M5~ Marta Val~    90   100    21   306    29    69   339    28   325
    ##  4 01M5~ Lower Eas~    95   100    86   454    36   389   477    36   450
    ##  5 01M6~ Cascades ~    75    86    19   125    12    30   166    14   158
    ##  6 01M6~ Bard High~    98    81    50   561    30   283   571    37   561
    ##  7 02M0~ 47 The Am~    72    76    30   109    16    43   152    21   145
    ##  8 02M2~ Food and ~    86   100    57   348    35   229   407    31   405
    ##  9 02M2~ Essex Str~    48    56     9   150    15    28   314    27   306
    ## 10 02M2~ High Scho~    61    96    56   233    27   204   385    28   365
    ## # ... with 429 more rows, and 19 more variables: saf_p_11 <dbl>,
    ## #   com_p_11 <dbl>, eng_p_11 <dbl>, aca_p_11 <dbl>, saf_t_11 <dbl>,
    ## #   com_t_11 <dbl>, eng_t_11 <dbl>, aca_t_11 <dbl>, saf_s_11 <dbl>,
    ## #   com_s_11 <dbl>, eng_s_11 <dbl>, aca_s_11 <dbl>, saf_tot_11 <dbl>,
    ## #   com_tot_11 <dbl>, eng_tot_11 <dbl>, aca_tot_11 <dbl>,
    ## #   studentssurveyed <chr>, highschool <dbl>, schooltype <chr>

Let’s combine the survey dataframe with our combined df using left join
so that we can retain all observations in the combined df and those
matching records in the survey df.The key for our join is the DBN
variable which exists in all our dataframes.

``` r
combinedsurvey <- combined %>%
  left_join(survey, by = "DBN")

combinedsurvey
```

    ## # A tibble: 479 x 59
    ##    DBN   school_name `Num of SAT Tes~ `SAT Critical R~ `SAT Math Avg. ~
    ##    <chr> <chr>                  <dbl>            <dbl>            <dbl>
    ##  1 01M2~ HENRY STRE~               29              355              404
    ##  2 01M4~ UNIVERSITY~               91              383              423
    ##  3 01M4~ EAST SIDE ~               70              377              402
    ##  4 01M4~ FORSYTH SA~                7              414              401
    ##  5 01M5~ MARTA VALL~               44              390              433
    ##  6 01M5~ LOWER EAST~              112              332              557
    ##  7 01M5~ NEW EXPLOR~              159              522              574
    ##  8 01M6~ CASCADES H~               18              417              418
    ##  9 01M6~ BARD HIGH ~              130              624              604
    ## 10 02M0~ 47 THE AME~               16              395              400
    ## # ... with 469 more rows, and 54 more variables: `SAT Writing Avg.
    ## #   Score` <dbl>, avg_sat_score <dbl>, `AP Test Takers` <dbl>, `Total Exams
    ## #   Taken` <dbl>, `Number of Exams with scores 3 4 or 5` <dbl>,
    ## #   exams_per_student <dbl>, high_score_percent <dbl>, avg_class_size <dbl>,
    ## #   frl_percent <dbl>, total_enrollment <dbl>, ell_percent <dbl>,
    ## #   sped_percent <dbl>, selfcontained_num <dbl>, asian_per <dbl>,
    ## #   black_per <dbl>, hispanic_per <dbl>, white_per <dbl>, male_per <dbl>,
    ## #   female_per <dbl>, `Total Cohort` <dbl>, grads_percent <dbl>,
    ## #   dropout_percent <dbl>, boro <chr>, lat <dbl>, long <dbl>, schoolname <chr>,
…
Our next step is to reshape the data with the so that the survey
question (e.g., saf\_p\_11) and the corresponding score are in two
separate columns:

``` r
combinedlong <- combinedsurvey %>%
  pivot_longer(cols = c(saf_p_11:aca_tot_11), names_to = "survey_question", values_to = "score" )

combinedlong
```

    ## # A tibble: 7,664 x 45
    ##    DBN   school_name `Num of SAT Tes~ `SAT Critical R~ `SAT Math Avg. ~
    ##    <chr> <chr>                  <dbl>            <dbl>            <dbl>
    ##  1 01M2~ HENRY STRE~               29              355              404
    ##  2 01M2~ HENRY STRE~               29              355              404
    ##  3 01M2~ HENRY STRE~               29              355              404
    ##  4 01M2~ HENRY STRE~               29              355              404
    ##  5 01M2~ HENRY STRE~               29              355              404
    ##  6 01M2~ HENRY STRE~               29              355              404
    ##  7 01M2~ HENRY STRE~               29              355              404
    ##  8 01M2~ HENRY STRE~               29              355              404
    ##  9 01M2~ HENRY STRE~               29              355              404
    ## 10 01M2~ HENRY STRE~               29              355              404
    ## # ... with 7,654 more rows, and 40 more variables: `SAT Writing Avg.
    ## #   Score` <dbl>, avg_sat_score <dbl>, `AP Test Takers` <dbl>, `Total Exams
    ## #   Taken` <dbl>, `Number of Exams with scores 3 4 or 5` <dbl>,
    ## #   exams_per_student <dbl>, high_score_percent <dbl>, avg_class_size <dbl>,
    ## #   frl_percent <dbl>, total_enrollment <dbl>, ell_percent <dbl>,
    ## #   sped_percent <dbl>, selfcontained_num <dbl>, asian_per <dbl>,
    ## #   black_per <dbl>, hispanic_per <dbl>, white_per <dbl>, male_per <dbl>,
    ## #   female_per <dbl>, `Total Cohort` <dbl>, grads_percent <dbl>,
    ## #   dropout_percent <dbl>, boro <chr>, lat <dbl>, long <dbl>, schoolname <chr>,
…
``` r
combinedlong <-  combinedlong %>%
  mutate(response_type = ifelse(substr(survey_question,4,6) == "_p_", "parent",
                                ifelse(substr(survey_question,4,6) == "_s_", "student",
                                       ifelse(substr(survey_question,4,6) == "_t_", "teacher",
                                              ifelse(substr(survey_question,4,6) == "_to","total", "NA"))))) %>%
  mutate(metric = ifelse(substr(survey_question,1,3) == "eng", "engagement",
                         ifelse(substr(survey_question,1,3) == "aca", "academic",
                                ifelse(substr(survey_question,1,3) == "saf", "safety", "communication"))))

combinedlong
```

    ## # A tibble: 7,664 x 47
    ##    DBN   school_name `Num of SAT Tes~ `SAT Critical R~ `SAT Math Avg. ~
    ##    <chr> <chr>                  <dbl>            <dbl>            <dbl>
    ##  1 01M2~ HENRY STRE~               29              355              404
    ##  2 01M2~ HENRY STRE~               29              355              404
    ##  3 01M2~ HENRY STRE~               29              355              404
    ##  4 01M2~ HENRY STRE~               29              355              404
    ##  5 01M2~ HENRY STRE~               29              355              404
    ##  6 01M2~ HENRY STRE~               29              355              404
    ##  7 01M2~ HENRY STRE~               29              355              404
    ##  8 01M2~ HENRY STRE~               29              355              404
    ##  9 01M2~ HENRY STRE~               29              355              404
    ## 10 01M2~ HENRY STRE~               29              355              404
    ## # ... with 7,654 more rows, and 42 more variables: `SAT Writing Avg.
    ## #   Score` <dbl>, avg_sat_score <dbl>, `AP Test Takers` <dbl>, `Total Exams
    ## #   Taken` <dbl>, `Number of Exams with scores 3 4 or 5` <dbl>,
    ## #   exams_per_student <dbl>, high_score_percent <dbl>, avg_class_size <dbl>,
    ## #   frl_percent <dbl>, total_enrollment <dbl>, ell_percent <dbl>,
    ## #   sped_percent <dbl>, selfcontained_num <dbl>, asian_per <dbl>,
    ## #   black_per <dbl>, hispanic_per <dbl>, white_per <dbl>, male_per <dbl>,
    ## #   female_per <dbl>, `Total Cohort` <dbl>, grads_percent <dbl>,
    ## #   dropout_percent <dbl>, boro <chr>, lat <dbl>, long <dbl>, schoolname <chr>,
…
